{
	"ImportPath": "gitlab.com/leanlabsio/kanban",
	"GoVersion": "go1.8",
	"GodepVersion": "v79",
	"Deps": [
		{
			"ImportPath": "github.com/BurntSushi/toml",
			"Comment": "v0.1.0-23-g5c4df71",
			"Rev": "5c4df71dfe9ac89ef6287afc05e4c1b16ae65a1e"
		},
		{
			"ImportPath": "github.com/Unknwon/com",
			"Rev": "28b053d5a2923b87ce8c5a08f3af779894a72758"
		},
		{
			"ImportPath": "github.com/dgrijalva/jwt-go",
			"Comment": "v2.4.0-4-gafef698",
			"Rev": "afef698c326bfd906b11659432544e5aae441d44"
		},
		{
			"ImportPath": "github.com/elazarl/go-bindata-assetfs",
			"Rev": "57eb5e1fc594ad4b0b1dbea7b286d299e0cb43c2"
		},
		{
			"ImportPath": "github.com/go-macaron/bindata",
			"Rev": "de74a053830c7d338bf209adf3b711c969f63e59"
		},
		{
			"ImportPath": "github.com/go-macaron/binding",
			"Rev": "2502aaf4bce3a4e6451b4610847bfb8dffdb6266"
		},
		{
			"ImportPath": "github.com/go-macaron/inject",
			"Rev": "c5ab7bf3a307593cd44cb272d1a5beea473dd072"
		},
		{
			"ImportPath": "github.com/google/go-querystring/query",
			"Rev": "2a60fc2ba6c19de80291203597d752e9ba58e4c0"
		},
		{
			"ImportPath": "github.com/gorilla/websocket",
			"Rev": "3986be78bf859e01f01af631ad76da5b269d270c"
		},
		{
			"ImportPath": "github.com/hashicorp/hcl",
			"Rev": "9a905a34e6280ce905da1a32344b25e81011197a"
		},
		{
			"ImportPath": "github.com/hashicorp/hcl/hcl/ast",
			"Rev": "9a905a34e6280ce905da1a32344b25e81011197a"
		},
		{
			"ImportPath": "github.com/hashicorp/hcl/hcl/parser",
			"Rev": "9a905a34e6280ce905da1a32344b25e81011197a"
		},
		{
			"ImportPath": "github.com/hashicorp/hcl/hcl/scanner",
			"Rev": "9a905a34e6280ce905da1a32344b25e81011197a"
		},
		{
			"ImportPath": "github.com/hashicorp/hcl/hcl/strconv",
			"Rev": "9a905a34e6280ce905da1a32344b25e81011197a"
		},
		{
			"ImportPath": "github.com/hashicorp/hcl/hcl/token",
			"Rev": "9a905a34e6280ce905da1a32344b25e81011197a"
		},
		{
			"ImportPath": "github.com/hashicorp/hcl/json/parser",
			"Rev": "9a905a34e6280ce905da1a32344b25e81011197a"
		},
		{
			"ImportPath": "github.com/hashicorp/hcl/json/scanner",
			"Rev": "9a905a34e6280ce905da1a32344b25e81011197a"
		},
		{
			"ImportPath": "github.com/hashicorp/hcl/json/token",
			"Rev": "9a905a34e6280ce905da1a32344b25e81011197a"
		},
		{
			"ImportPath": "github.com/inconshreveable/mousetrap",
			"Rev": "76626ae9c91c4f2a10f34cad8ce83ea42c93bb75"
		},
		{
			"ImportPath": "github.com/kr/pretty",
			"Comment": "go.weekly.2011-12-22-27-ge6ac2fc",
			"Rev": "e6ac2fc51e89a3249e82157fa0bb7a18ef9dd5bb"
		},
		{
			"ImportPath": "github.com/kr/text",
			"Rev": "bb797dc4fb8320488f47bf11de07a733d7233e1f"
		},
		{
			"ImportPath": "github.com/leanlabsio/sockets",
			"Rev": "555ea7145f564a420c51194bb8b91eef028c7437"
		},
		{
			"ImportPath": "github.com/magiconair/properties",
			"Comment": "v1.6.0-1-gc81f9d7",
			"Rev": "c81f9d71af8f8cba1466501d30326b99a4e56c19"
		},
		{
			"ImportPath": "github.com/mitchellh/mapstructure",
			"Rev": "281073eb9eb092240d33ef253c404f1cca550309"
		},
		{
			"ImportPath": "github.com/spf13/cast",
			"Rev": "ee7b3e0353166ab1f3a605294ac8cd2b77953778"
		},
		{
			"ImportPath": "github.com/spf13/cobra",
			"Rev": "8e91712f174ced10270cf66615e0a9127e7c4de5"
		},
		{
			"ImportPath": "github.com/spf13/jwalterweatherman",
			"Rev": "d00654080cddbd2b082acaa74007cb94a2b40866"
		},
		{
			"ImportPath": "github.com/spf13/pflag",
			"Rev": "7f60f83a2c81bc3c3c0d5297f61ddfa68da9d3b7"
		},
		{
			"ImportPath": "github.com/spf13/viper",
			"Rev": "a212099cbe6fbe8d07476bfda8d2d39b6ff8f325"
		},
		{
			"ImportPath": "golang.org/x/net/context",
			"Rev": "c92cdcb05f66ce5b61460e23498d2dc5fcf69aaf"
		},
		{
			"ImportPath": "golang.org/x/oauth2",
			"Rev": "ad0128250e8fba646a92ca9129716e523d63ef9f"
		},
		{
			"ImportPath": "golang.org/x/oauth2/internal",
			"Rev": "ad0128250e8fba646a92ca9129716e523d63ef9f"
		},
		{
			"ImportPath": "gopkg.in/bsm/ratelimit.v1",
			"Rev": "f14ad9c78b155f69b480cfa41cb655259baac260"
		},
		{
			"ImportPath": "gopkg.in/fsnotify.v1",
			"Comment": "v1.2.9",
			"Rev": "8611c35ab31c1c28aa903d33cf8b6e44a399b09e"
		},
		{
			"ImportPath": "gopkg.in/ini.v1",
			"Comment": "v1.8.6",
			"Rev": "afbd495e5aaea13597b5e14fe514ddeaa4d76fc3"
		},
		{
			"ImportPath": "gopkg.in/macaron.v1",
			"Rev": "564f398778297b0b083aaa070dda26e217f1e6b3"
		},
		{
			"ImportPath": "gopkg.in/redis.v3",
			"Comment": "v3.6.4",
			"Rev": "b5e368500d0a508ef8f16e9c2d4025a8a46bcc29"
		},
		{
			"ImportPath": "gopkg.in/redis.v3/internal",
			"Comment": "v3.6.4",
			"Rev": "b5e368500d0a508ef8f16e9c2d4025a8a46bcc29"
		},
		{
			"ImportPath": "gopkg.in/redis.v3/internal/consistenthash",
			"Comment": "v3.6.4",
			"Rev": "b5e368500d0a508ef8f16e9c2d4025a8a46bcc29"
		},
		{
			"ImportPath": "gopkg.in/redis.v3/internal/hashtag",
			"Comment": "v3.6.4",
			"Rev": "b5e368500d0a508ef8f16e9c2d4025a8a46bcc29"
		},
		{
			"ImportPath": "gopkg.in/redis.v3/internal/pool",
			"Comment": "v3.6.4",
			"Rev": "b5e368500d0a508ef8f16e9c2d4025a8a46bcc29"
		},
		{
			"ImportPath": "gopkg.in/yaml.v2",
			"Rev": "f7716cbe52baa25d2e9b0d0da546fcf909fc16b4"
		}
	]
}
